{
    "project_info": {
      "project_number": "930823811263",
      "firebase_url": "https://br-makro-cap-react-101fc.firebaseio.com",
      "project_id": "br-makro-cap-react-101fc",
      "storage_bucket": "br-makro-cap-react-101fc.appspot.com"
    },
    "client": [
      {
        "client_info": {
          "mobilesdk_app_id": "1:930823811263:android:b2ac2860c0cca957",
          "android_client_info": {
            "package_name": "br.com.makrocapp.app"
          }
        },
        "oauth_client": [
          {
            "client_id": "930823811263-g8ib4b292umb333bsrtp0pj7prm4d14u.apps.googleusercontent.com",
            "client_type": 3
          }
        ],
        "api_key": [
          {
            "current_key": "AIzaSyCrS6yyc73JKJl14_Rs2lM02uXweVM-SdQ"
          }
        ],
        "services": {
          "analytics_service": {
            "status": 1
          },
          "appinvite_service": {
            "status": 1,
            "other_platform_oauth_client": []
          },
          "ads_service": {
            "status": 2
          }
        }
      }
    ],
    "configuration_version": "1"
  }